…
*dest, correct?*

#### 4. We know that some days of the year are “special”, and fewer people than usual fly on them. How might you represent that data as a data frame? What would be the primary keys of that table? How would it connect to the existing tables?


```r
flights %>%
  group_by(year) %>%
  count(month, day) %>%
  arrange(n)
```

```
## # A tibble: 365 x 4
## # Groups:   year [1]
##     year month   day     n
##    <int> <int> <int> <int>
##  1  2013    11    28   634
##  2  2013    11    29   661
##  3  2013     1    19   674
##  4  2013    10    12   676
##  5  2013     1    26   680
##  6  2013     8    31   680
##  7  2013     2     2   682
##  8  2013     9    28   682
##  9  2013     2     9   684
## 10  2013    10    19   684
## # ... with 355 more rows
```
```r
#connect via year/month/day to flights, whereby it could connect to other tables
```

### 13.3.1

#### 1. Add a surrogate key to flights.

```r
flights %>%
  mutate(id=row_number())
```

```
## # A tibble: 336,776 x 20
##     year month   day dep_time sched_dep_time dep_delay arr_time sched_arr_time
##    <int> <int> <int>    <int>          <int>     <dbl>    <int>          <int>
##  1  2013     1     1      517            515         2      830            819
##  2  2013     1     1      533            529         4      850            830
##  3  2013     1     1      542            540         2      923            850
##  4  2013     1     1      544            545        -1     1004           1022
##  5  2013     1     1      554            600        -6      812            837
##  6  2013     1     1      554            558        -4      740            728
##  7  2013     1     1      555            600        -5      913            854
##  8  2013     1     1      557            600        -3      709            723
##  9  2013     1     1      557            600        -3      838            846
## 10  2013     1     1      558            600        -2      753            745
## # ... with 336,766 more rows, and 12 more variables: arr_delay <dbl>,
## #   carrier <chr>, flight <int>, tailnum <chr>, origin <chr>, dest <chr>,
## #   air_time <dbl>, distance <dbl>, hour <dbl>, minute <dbl>, time_hour <dttm>,
## #   id <int>
```
…
