…
```r
#gsub(".y","", table4$year)
```

Which representation is easiest to work with? Which is hardest? Why?  
*Both of them sucked. How are you supposed to do these without knowing gather() and spread()?*
*I suppose Table 4 was harder, since I had to join them before I could do anything else, and then separate . Then again, if I didn't have spread, I would have hated 2 a lot, as well.*

 3. Recreate the plot showing change in cases over time using table2 instead of table1. What do you need to do first?

```r
#> # A tibble: 12 x 4
#>   country      year type           count
#>   <chr>       <int> <chr>          <int>
#> 1 Afghanistan  1999 cases            745
#> 2 Afghanistan  1999 population  19987071
#> 3 Afghanistan  2000 cases           2666
#> 4 Afghanistan  2000 population  20595360
#> 5 Brazil       1999 cases          37737
#> 6 Brazil       1999 population 172006362
#> # … with 6 more rows
…
```
## # A tibble: 76,046 x 6
##    country      year var   sex   age   cases
##    <chr>       <int> <chr> <chr> <chr> <int>
##  1 Afghanistan  1997 sp    m     014       0
##  2 Afghanistan  1997 sp    m     1524     10
##  3 Afghanistan  1997 sp    m     2534      6
##  4 Afghanistan  1997 sp    m     3544      3
##  5 Afghanistan  1997 sp    m     4554      5
##  6 Afghanistan  1997 sp    m     5564      2
##  7 Afghanistan  1997 sp    m     65        0
##  8 Afghanistan  1997 sp    f     014       5
##  9 Afghanistan  1997 sp    f     1524     38
## 10 Afghanistan  1997 sp    f     2534     36
## # ... with 76,036 more rows
```
…
