…
*Was this written by someone who speaks Turkish or something? Not sure how else someone could use _ı_ instead of _i_.*

2. Tweak each of the following R commands so that they run correctly:


```r
a <- ggplot(data = mpg) + #dota -> data
  geom_point(mapping = aes(x = displ, y = hwy))
#picsave(a, "4.4.2 graph.pdf")

filter(mpg, cyl == 8) #= -> ==
```

```
## # A tibble: 70 x 11
##    manufacturer model     displ  year   cyl trans  drv     cty   hwy fl    class
##    <chr>        <chr>     <dbl> <int> <int> <chr>  <chr> <int> <int> <chr> <chr>
##  1 audi         a6 quatt~   4.2  2008     8 auto(~ 4        16    23 p     mids~
##  2 chevrolet    c1500 su~   5.3  2008     8 auto(~ r        14    20 r     suv  
##  3 chevrolet    c1500 su~   5.3  2008     8 auto(~ r        11    15 e     suv  
##  4 chevrolet    c1500 su~   5.3  2008     8 auto(~ r        14    20 r     suv  
##  5 chevrolet    c1500 su~   5.7  1999     8 auto(~ r        13    17 r     suv  
##  6 chevrolet    c1500 su~   6    2008     8 auto(~ r        12    17 r     suv  
##  7 chevrolet    corvette    5.7  1999     8 manua~ r        16    26 p     2sea~
##  8 chevrolet    corvette    5.7  1999     8 auto(~ r        15    23 p     2sea~
##  9 chevrolet    corvette    6.2  2008     8 manua~ r        16    26 p     2sea~
## 10 chevrolet    corvette    6.2  2008     8 auto(~ r        15    25 p     2sea~
## # ... with 60 more rows
```

```r
filter(diamonds, carat > 3) # diamond -> diamonds
```

```
## # A tibble: 32 x 10
##    carat cut     color clarity depth table price     x     y     z
##    <dbl> <ord>   <ord> <ord>   <dbl> <dbl> <int> <dbl> <dbl> <dbl>
##  1  3.01 Premium I     I1       62.7    58  8040  9.1   8.97  5.67
##  2  3.11 Fair    J     I1       65.9    57  9823  9.15  9.02  5.98
##  3  3.01 Premium F     I1       62.2    56  9925  9.24  9.13  5.73
##  4  3.05 Premium E     I1       60.9    58 10453  9.26  9.25  5.66
##  5  3.02 Fair    I     I1       65.2    56 10577  9.11  9.02  5.91
##  6  3.01 Fair    H     I1       56.1    62 10761  9.54  9.38  5.31
##  7  3.65 Fair    H     I1       67.1    53 11668  9.53  9.48  6.38
##  8  3.24 Premium H     I1       62.1    58 12300  9.44  9.4   5.85
##  9  3.22 Ideal   I     I1       62.6    55 12545  9.49  9.42  5.92
## 10  3.5  Ideal   H     I1       62.8    57 12587  9.65  9.59  6.03
## # ... with 22 more rows
```
…
```r
filter(flights, arr_delay >= 2)
```

```
## # A tibble: 127,929 x 19
##     year month   day dep_time sched_dep_time dep_delay arr_time sched_arr_time
##    <int> <int> <int>    <int>          <int>     <dbl>    <int>          <int>
##  1  2013     1     1      517            515         2      830            819
##  2  2013     1     1      533            529         4      850            830
##  3  2013     1     1      542            540         2      923            850
##  4  2013     1     1      554            558        -4      740            728
##  5  2013     1     1      555            600        -5      913            854
##  6  2013     1     1      558            600        -2      753            745
##  7  2013     1     1      558            600        -2      924            917
##  8  2013     1     1      559            600        -1      941            910
##  9  2013     1     1      600            600         0      837            825
## 10  2013     1     1      602            605        -3      821            805
## # ... with 127,919 more rows, and 11 more variables: arr_delay <dbl>,
## #   carrier <chr>, flight <int>, tailnum <chr>, origin <chr>, dest <chr>,
## #   air_time <dbl>, distance <dbl>, hour <dbl>, minute <dbl>, time_hour <dttm>
```
  
  #### 1.4: Departed in summer (July, August, and September)
  

```r
filter(flights, month %in% c(7,8,9))
```

```
## # A tibble: 86,326 x 19
##     year month   day dep_time sched_dep_time dep_delay arr_time sched_arr_time
##    <int> <int> <int>    <int>          <int>     <dbl>    <int>          <int>
##  1  2013     7     1        1           2029       212      236           2359
##  2  2013     7     1        2           2359         3      344            344
##  3  2013     7     1       29           2245       104      151              1
##  4  2013     7     1       43           2130       193      322             14
##  5  2013     7     1       44           2150       174      300            100
##  6  2013     7     1       46           2051       235      304           2358
##  7  2013     7     1       48           2001       287      308           2305
##  8  2013     7     1       58           2155       183      335             43
##  9  2013     7     1      100           2146       194      327             30
## 10  2013     7     1      100           2245       135      337            135
## # ... with 86,316 more rows, and 11 more variables: arr_delay <dbl>,
## #   carrier <chr>, flight <int>, tailnum <chr>, origin <chr>, dest <chr>,
## #   air_time <dbl>, distance <dbl>, hour <dbl>, minute <dbl>, time_hour <dttm>
```

  #### 1.5: Arrived more than two hours late, but didn’t leave late


```r
filter(flights, arr_delay > 2 & dep_delay == 0)
```

```
## # A tibble: 4,368 x 19
##     year month   day dep_time sched_dep_time dep_delay arr_time sched_arr_time
##    <int> <int> <int>    <int>          <int>     <dbl>    <int>          <int>
##  1  2013     1     1      600            600         0      837            825
##  2  2013     1     1      635            635         0     1028            940
##  3  2013     1     1      739            739         0     1104           1038
##  4  2013     1     1      745            745         0     1135           1125
##  5  2013     1     1      800            800         0     1022           1014
##  6  2013     1     1      805            805         0     1015           1005
##  7  2013     1     1      810            810         0     1048           1037
##  8  2013     1     1      823            823         0     1151           1135
##  9  2013     1     1      830            830         0     1018           1015
## 10  2013     1     1      835            835         0     1210           1150
## # ... with 4,358 more rows, and 11 more variables: arr_delay <dbl>,
## #   carrier <chr>, flight <int>, tailnum <chr>, origin <chr>, dest <chr>,
## #   air_time <dbl>, distance <dbl>, hour <dbl>, minute <dbl>, time_hour <dttm>
```

  #### 1.7: Departed between midnight and 6am (inclusive)
  

```r
(d <- filter(flights, dep_time >= 0, dep_time <= 600))
```

```
## # A tibble: 9,344 x 19
##     year month   day dep_time sched_dep_time dep_delay arr_time sched_arr_time
##    <int> <int> <int>    <int>          <int>     <dbl>    <int>          <int>
##  1  2013     1     1      517            515         2      830            819
##  2  2013     1     1      533            529         4      850            830
##  3  2013     1     1      542            540         2      923            850
##  4  2013     1     1      544            545        -1     1004           1022
##  5  2013     1     1      554            600        -6      812            837
##  6  2013     1     1      554            558        -4      740            728
##  7  2013     1     1      555            600        -5      913            854
##  8  2013     1     1      557            600        -3      709            723
##  9  2013     1     1      557            600        -3      838            846
## 10  2013     1     1      558            600        -2      753            745
## # ... with 9,334 more rows, and 11 more variables: arr_delay <dbl>,
## #   carrier <chr>, flight <int>, tailnum <chr>, origin <chr>, dest <chr>,
## #   air_time <dbl>, distance <dbl>, hour <dbl>, minute <dbl>, time_hour <dttm>
```
…
```r
e <- filter(flights, dep_time %in% between(dep_time,0, 600))
# d == e
```

  #### 3: How many flights have a missing dep_time? What other variables are missing? What might these rows represent?


```r
filter(flights, dep_time %in% NA) # 8255 rows/flights
```

```
## # A tibble: 8,255 x 19
##     year month   day dep_time sched_dep_time dep_delay arr_time sched_arr_time
##    <int> <int> <int>    <int>          <int>     <dbl>    <int>          <int>
##  1  2013     1     1       NA           1630        NA       NA           1815
##  2  2013     1     1       NA           1935        NA       NA           2240
##  3  2013     1     1       NA           1500        NA       NA           1825
##  4  2013     1     1       NA            600        NA       NA            901
##  5  2013     1     2       NA           1540        NA       NA           1747
##  6  2013     1     2       NA           1620        NA       NA           1746
##  7  2013     1     2       NA           1355        NA       NA           1459
##  8  2013     1     2       NA           1420        NA       NA           1644
##  9  2013     1     2       NA           1321        NA       NA           1536
## 10  2013     1     2       NA           1545        NA       NA           1910
## # ... with 8,245 more rows, and 11 more variables: arr_delay <dbl>,
## #   carrier <chr>, flight <int>, tailnum <chr>, origin <chr>, dest <chr>,
## #   air_time <dbl>, distance <dbl>, hour <dbl>, minute <dbl>, time_hour <dttm>
```
…
  
### 5.3.1

#### How could you use arrange() to sort all missing values to the start? (Hint: use is.na()).

```r
arrange(flights, desc(is.na(dep_delay))) #this works, but is it the intended solution?
```

```
## # A tibble: 336,776 x 19
##     year month   day dep_time sched_dep_time dep_delay arr_time sched_arr_time
##    <int> <int> <int>    <int>          <int>     <dbl>    <int>          <int>
##  1  2013     1     1       NA           1630        NA       NA           1815
##  2  2013     1     1       NA           1935        NA       NA           2240
##  3  2013     1     1       NA           1500        NA       NA           1825
##  4  2013     1     1       NA            600        NA       NA            901
##  5  2013     1     2       NA           1540        NA       NA           1747
##  6  2013     1     2       NA           1620        NA       NA           1746
##  7  2013     1     2       NA           1355        NA       NA           1459
##  8  2013     1     2       NA           1420        NA       NA           1644
##  9  2013     1     2       NA           1321        NA       NA           1536
## 10  2013     1     2       NA           1545        NA       NA           1910
## # ... with 336,766 more rows, and 11 more variables: arr_delay <dbl>,
## #   carrier <chr>, flight <int>, tailnum <chr>, origin <chr>, dest <chr>,
## #   air_time <dbl>, distance <dbl>, hour <dbl>, minute <dbl>, time_hour <dttm>
```

#### Sort flights to find the most delayed flights. Find the flights that left earliest.

```r
arrange(flights, dep_time, desc(dep_delay))
```

```
## # A tibble: 336,776 x 19
##     year month   day dep_time sched_dep_time dep_delay arr_time sched_arr_time
##    <int> <int> <int>    <int>          <int>     <dbl>    <int>          <int>
##  1  2013     4    10        1           1930       271      106           2101
##  2  2013     5    22        1           1935       266      154           2140
##  3  2013     6    24        1           1950       251      105           2130
##  4  2013     7     1        1           2029       212      236           2359
##  5  2013     1    31        1           2100       181      124           2225
##  6  2013     2    11        1           2100       181      111           2225
##  7  2013     3    18        1           2128       153      247           2355
##  8  2013     6    25        1           2130       151      249             14
##  9  2013     2    24        1           2245        76      121           2354
## 10  2013     1    13        1           2249        72      108           2357
## # ... with 336,766 more rows, and 11 more variables: arr_delay <dbl>,
## #   carrier <chr>, flight <int>, tailnum <chr>, origin <chr>, dest <chr>,
## #   air_time <dbl>, distance <dbl>, hour <dbl>, minute <dbl>, time_hour <dttm>
```
#### Sort flights to find the fastest (highest speed) flights.

```r
y <- arrange(flights, desc(distance), air_time)
#(select(y, distance, air_time)) -> double-checking
```

#### Which flights travelled the farthest? Which travelled the shortest?

```r
(longest_distance <- top_n(flights, 10, distance))
```

```
## # A tibble: 342 x 19
##     year month   day dep_time sched_dep_time dep_delay arr_time sched_arr_time
##    <int> <int> <int>    <int>          <int>     <dbl>    <int>          <int>
##  1  2013     1     1      857            900        -3     1516           1530
##  2  2013     1     2      909            900         9     1525           1530
##  3  2013     1     3      914            900        14     1504           1530
##  4  2013     1     4      900            900         0     1516           1530
##  5  2013     1     5      858            900        -2     1519           1530
##  6  2013     1     6     1019            900        79     1558           1530
##  7  2013     1     7     1042            900       102     1620           1530
##  8  2013     1     8      901            900         1     1504           1530
##  9  2013     1     9      641            900      1301     1242           1530
## 10  2013     1    10      859            900        -1     1449           1530
## # ... with 332 more rows, and 11 more variables: arr_delay <dbl>,
## #   carrier <chr>, flight <int>, tailnum <chr>, origin <chr>, dest <chr>,
## #   air_time <dbl>, distance <dbl>, hour <dbl>, minute <dbl>, time_hour <dttm>
```

```r
(shortest_distance <- top_n(flights, -10, distance))
```

```
## # A tibble: 50 x 19
##     year month   day dep_time sched_dep_time dep_delay arr_time sched_arr_time
##    <int> <int> <int>    <int>          <int>     <dbl>    <int>          <int>
##  1  2013     1     3     2127           2129        -2     2222           2224
##  2  2013     1     4     1240           1200        40     1333           1306
##  3  2013     1     4     1829           1615       134     1937           1721
##  4  2013     1     4     2128           2129        -1     2218           2224
##  5  2013     1     5     1155           1200        -5     1241           1306
##  6  2013     1     6     2125           2129        -4     2224           2224
##  7  2013     1     7     2124           2129        -5     2212           2224
##  8  2013     1     8     2127           2130        -3     2304           2225
##  9  2013     1     9     2126           2129        -3     2217           2224
## 10  2013     1    10     2133           2129         4     2223           2224
## # ... with 40 more rows, and 11 more variables: arr_delay <dbl>, carrier <chr>,
## #   flight <int>, tailnum <chr>, origin <chr>, dest <chr>, air_time <dbl>,
## #   distance <dbl>, hour <dbl>, minute <dbl>, time_hour <dttm>
```
…
#### Brainstorm as many ways as possible to select dep_time, dep_delay, arr_time, and arr_delay from flights.

```r
#one option: select()
```

#### What happens if you include the name of a variable multiple times in a select() call?

```r
select(flights, day, month, day, month, dep_delay, dep_delay)
```

```
## # A tibble: 336,776 x 3
##      day month dep_delay
##    <int> <int>     <dbl>
##  1     1     1         2
##  2     1     1         4
##  3     1     1         2
##  4     1     1        -1
##  5     1     1        -6
##  6     1     1        -4
##  7     1     1        -5
##  8     1     1        -3
##  9     1     1        -3
## 10     1     1        -2
## # ... with 336,766 more rows
```
*Repeating variable names does not appear to make a difference. Only the sorting of the initial appearance of each name within the list matters.*

#### What does the one_of() function do? Why might it be helpful in conjunction with this vector?

```r
vars <- c("year", "month", "day", "dep_delay", "arr_delay") 
select(flights, one_of(vars))
```

```
## # A tibble: 336,776 x 5
##     year month   day dep_delay arr_delay
##    <int> <int> <int>     <dbl>     <dbl>
##  1  2013     1     1         2        11
##  2  2013     1     1         4        20
##  3  2013     1     1         2        33
##  4  2013     1     1        -1       -18
##  5  2013     1     1        -6       -25
##  6  2013     1     1        -4        12
##  7  2013     1     1        -5        19
##  8  2013     1     1        -3       -14
##  9  2013     1     1        -3        -8
## 10  2013     1     1        -2         8
## # ... with 336,766 more rows
```

*one_of() allows one to make a character vector with specific column names that you can then select for.*

#### Does the result of running the following code surprise you? How do the select helpers deal with case by default? How can you change that default?

```r
select(flights, contains("TIME"))
```

```
## # A tibble: 336,776 x 6
##    dep_time sched_dep_time arr_time sched_arr_time air_time time_hour          
##       <int>          <int>    <int>          <int>    <dbl> <dttm>             
##  1      517            515      830            819      227 2013-01-01 05:00:00
##  2      533            529      850            830      227 2013-01-01 05:00:00
##  3      542            540      923            850      160 2013-01-01 05:00:00
##  4      544            545     1004           1022      183 2013-01-01 05:00:00
##  5      554            600      812            837      116 2013-01-01 06:00:00
##  6      554            558      740            728      150 2013-01-01 05:00:00
##  7      555            600      913            854      158 2013-01-01 06:00:00
##  8      557            600      709            723       53 2013-01-01 06:00:00
##  9      557            600      838            846      140 2013-01-01 06:00:00
## 10      558            600      753            745      138 2013-01-01 06:00:00
## # ... with 336,766 more rows
```

*The results aren't too surprising, though I didn't realize select was not case-sensitive.*
*If I wanted to specify case, I could add the specifier below:*

```r
select(flights, contains("time", ignore.case = FALSE))
```

```
## # A tibble: 336,776 x 6
##    dep_time sched_dep_time arr_time sched_arr_time air_time time_hour          
##       <int>          <int>    <int>          <int>    <dbl> <dttm>             
##  1      517            515      830            819      227 2013-01-01 05:00:00
##  2      533            529      850            830      227 2013-01-01 05:00:00
##  3      542            540      923            850      160 2013-01-01 05:00:00
##  4      544            545     1004           1022      183 2013-01-01 05:00:00
##  5      554            600      812            837      116 2013-01-01 06:00:00
##  6      554            558      740            728      150 2013-01-01 05:00:00
##  7      555            600      913            854      158 2013-01-01 06:00:00
##  8      557            600      709            723       53 2013-01-01 06:00:00
##  9      557            600      838            846      140 2013-01-01 06:00:00
## 10      558            600      753            745      138 2013-01-01 06:00:00
## # ... with 336,766 more rows
```
…
